…
And read-in the input data as follows

``` r
train = readxl::read_excel("SpatialPrediction.xlsx", sheet = 1)
covar = readxl::read_excel("SpatialPrediction.xlsx", sheet = 2)
locat = readxl::read_excel("SpatialPrediction.xlsx", sheet = 3)
# times = readxl::read_excel("SpatialPrediction.xlsx", sheet = 4) # what is this? -->Their test set. They will use to check our model
targt = readxl::read_excel("SpatialPrediction.xlsx", sheet = 5)
```

The objective is to fill the NA values in the `targt` data:

``` r
targt[1:3]
#> # A tibble: 5,004 x 3
#>    id                       time                PM10 
#>    <chr>                    <dttm>              <lgl>
#>  1 5a5da3c80aa2a900127f895a 2019-04-06 18:00:00 NA   
#>  2 590752d15ba9e500112b21db 2019-04-09 06:00:00 NA   
#>  3 5a58cb80999d43001b7c4ecb 2019-04-03 22:00:00 NA   
#>  4 5a5da3c80aa2a900127f895a 2019-04-03 00:00:00 NA   
#>  5 5a636a22411a790019bdcafd 2019-04-07 10:00:00 NA   
#>  6 5c49b10c35acab0019e6ce19 2019-04-03 16:00:00 NA   
#>  7 5a1b3c7d19991f0011b83054 2019-04-14 04:00:00 NA   
#>  8 5c57147435809500190ef1fd 2019-04-06 12:00:00 NA   
#>  9 5978e8fbfe1c74001199fa2a 2019-04-06 07:00:00 NA   
#> 10 5909d039dd09cc001199a6bf 2019-04-09 15:00:00 NA   
#> # … with 4,994 more rows
```
…
